{
    "spaces":{
        "slice0": {
            "hosts": [
                "claythree"
            ],
            "ports": [
                8888
            ]
        },
        "hosts":[
            "claythree"
        ]
    },

    "user" : {
        "username": "uceeftu"
    },

    "remote": {
        "path": "/home/uceeftu/"
    }
}
